%YAML 1.1
%TAG !u! tag:unity3d.com,2011:
--- !u!114 &11400000
MonoBehaviour:
  m_ObjectHideFlags: 0
  m_CorrespondingSourceObject: {fileID: 0}
  m_PrefabInstance: {fileID: 0}
  m_PrefabAsset: {fileID: 0}
  m_GameObject: {fileID: 0}
  m_Enabled: 1
  m_EditorHideFlags: 0
  m_Script: {fileID: 11500000, guid: d560cced689091f4284691ca80206805, type: 3}
  m_Name: SquareEnemyBulletProperties
  m_EditorClassIdentifier: 
  sprite: {fileID: 10905, guid: 0000000000000000f000000000000000, type: 0}
  tint: {r: 1, g: 0, b: 0.066036224, a: 1}
  colliderRadius: 0.065
  colliderOffset: {x: 0, y: 0}
